<?xml version="1.0" encoding="UTF-8"?>
<!DOCTYPE svg PUBLIC "-//W3C//DTD SVG 1.1//EN" "http://www.w3.org/Graphics/SVG/1.1/DTD/svg11.dtd">
<!-- Creator: CorelDRAW 2017 -->
<svg xmlns="http://www.w3.org/2000/svg" xml:space="preserve" width="591px" height="591px" version="1.1" style="shape-rendering:geometricPrecision; text-rendering:geometricPrecision; image-rendering:optimizeQuality; fill-rule:evenodd; clip-rule:evenodd"
viewBox="0 0 571 571"
 xmlns:xlink="http://www.w3.org/1999/xlink">
 <defs>
  <style type="text/css">
   <![CDATA[
    .fil2 {fill:none}
    .fil1 {fill:white}
    .fil0 {fill:white;fill-rule:nonzero}
   ]]>
  </style>
 </defs>
 <g id="Camada_x0020_1">
  <metadata id="CorelCorpID_0Corel-Layer"/>
  <g id="_2508162516144">
   <g>
    <g id="_2508161377344">
     <path class="fil0" d="M207 135c-39,3 -71,19 -95,43 -28,28 -44,67 -44,107 0,42 17,81 44,109 24,24 57,41 95,44l0 9c-41,-3 -76,-20 -102,-46 -30,-30 -47,-71 -47,-115 0,-44 18,-84 47,-114 26,-26 61,-43 102,-45l0 9 0 -1z"/>
     <path class="fil0" d="M207 119c-41,3 -79,21 -106,48 -31,31 -49,72 -49,118 0,45 19,87 49,118 28,28 65,45 106,48l0 17c-45,-3 -87,-23 -118,-54 -33,-33 -54,-79 -54,-130 0,-50 20,-96 54,-130 31,-31 72,-50 118,-54l0 17 0 2z"/>
     <path class="fil0" d="M364 103c45,3 87,23 118,54 33,33 54,79 54,130 0,50 -20,96 -54,130 -31,31 -72,50 -118,54l0 -17c41,-3 79,-21 106,-48 31,-31 49,-72 49,-118 0,-45 -19,-87 -49,-118 -28,-28 -65,-45 -106,-48l0 -17 0 -2z"/>
     <path class="fil0" d="M364 126c41,3 76,19 102,45 30,30 47,70 47,114 0,44 -18,85 -47,115 -26,26 -61,44 -102,46l0 -9c38,-3 71,-19 95,-44 28,-28 44,-68 44,-109 0,-42 -17,-80 -44,-107 -24,-24 -57,-40 -95,-43l0 -9 0 1z"/>
     <path class="fil0" d="M364 81c-3,-5 -6,-8 -10,-11 -7,-6 -17,-8 -29,-8l0 0 -1 0c-14,0 -26,6 -35,15 -8,9 -14,21 -14,35l0 0 0 1c0,1 0,1 0,1l0 1 0 1 1 5 22 148 -9 0c-7,-51 -16,-101 -23,-152l0 -1 0 -1c0,-1 0,-1 0,-2 0,-1 0,-1 0,-1l0 0c0,-16 6,-31 17,-42 10,-11 25,-18 42,-18l1 0 0 0c14,0 25,4 34,10 6,5 12,11 16,19l-11 0 0 0z"/>
     <path class="fil0" d="M382 81c-6,-10 -12,-19 -19,-24 -9,-7 -22,-11 -42,-11 -15,0 -30,7 -41,18 -11,11 -19,26 -19,42l0 1c0,4 0,5 0,8l22 154 -17 0 -22 -151c-1,-6 -1,-6 -1,-12l0 -1c1,-19 10,-39 24,-53 14,-14 33,-23 53,-23 23,0 39,6 52,15 12,9 20,22 29,38l-19 0 0 0z"/>
     <path class="fil0" d="M207 490c3,5 6,8 10,11 7,6 17,8 29,8l0 0 1 0c14,0 26,-6 35,-15 8,-9 14,-21 14,-35l0 0 0 -1c0,-1 0,-1 0,-1l0 -1 0 -1 -1 -5 -22 -148 9 0c7,51 16,101 23,152l0 1 0 1c0,1 0,1 0,2 0,1 0,1 0,1l0 0c0,16 -6,31 -17,42 -10,11 -25,18 -42,18l-1 0 0 0c-14,0 -25,-4 -34,-10 -6,-5 -12,-11 -16,-19l11 0 0 0z"/>
     <path class="fil0" d="M190 490c6,10 12,19 19,24 9,7 22,11 42,11 15,0 30,-7 41,-18 11,-11 19,-26 19,-42l0 -1c0,-4 0,-5 0,-8l-22 -154 17 0 22 151c1,6 1,6 1,12l0 1c-1,19 -10,39 -24,53 -14,14 -33,23 -53,23 -23,0 -39,-6 -52,-15 -12,-9 -20,-22 -29,-38l19 0 0 0z"/>
     <path class="fil1" d="M378 273l-185 0c-4,0 -6,2 -9,4 -2,2 -4,6 -4,9 0,4 2,6 4,9 2,2 6,4 9,4l185 0c4,0 6,-2 9,-4 2,-2 4,-6 4,-9 0,-4 -2,-6 -4,-9 -2,-2 -6,-4 -9,-4z"/>
    </g>
   </g>
   <rect class="fil2" width="571" height="571"/>
  </g>
 </g>
</svg>
